<svg xmlns="http://www.w3.org/2000/svg" width="60" height="53" viewBox="0 0 60 53">
    <path fill="#FFF" fill-rule="nonzero" d="M0 0v37.714h27.026c1.034 8.242 8.009 14.667 16.422 14.667 9.117 0 16.552-7.53 16.552-16.762 0-5.279-2.425-9.952-6.207-13.03V0H0zm8.922 4.19h35.949L26.897 16.304 8.922 4.19zM4.138 6.024l21.595 14.601 1.164.72 1.163-.72L49.655 6.024V20.1c-1.923-.802-4-1.244-6.207-1.244-8.413 0-15.388 6.425-16.422 14.667H4.138v-27.5zm39.31 17.024c6.878 0 12.414 5.606 12.414 12.571S50.326 48.19 43.448 48.19c-6.877 0-12.414-5.606-12.414-12.571s5.537-12.571 12.414-12.571zm6.79 6.875l-6.79 6.875-4.72-4.78-2.974 3.012 6.207 6.285 1.487 1.441 1.487-1.44 8.276-8.381-2.974-3.012z"/>
</svg>
