<?xml version="1.0" encoding="UTF-8"?>
<svg width="80px" height="80px" viewBox="0 0 80 80" version="1.1" xmlns="http://www.w3.org/2000/svg" xmlns:xlink="http://www.w3.org/1999/xlink">
    <!-- Generator: Sketch 46.1 (44463) - http://www.bohemiancoding.com/sketch -->
    <title>1_2_1_1/ic_success</title>
    <desc>Created with Sketch.</desc>
    <defs></defs>
    <g id="1440px" stroke="none" stroke-width="1" fill="none" fill-rule="evenodd">
        <g id="1_2_1_1" transform="translate(-680.000000, -432.000000)" fill-rule="nonzero" fill="#915321">
            <path d="M720,432 C697.944711,432 680,449.944711 680,472 C680,494.055289 697.944711,512 720,512 C742.055289,512 760,494.055289 760,472 C760,449.944711 742.055289,432 720,432 Z M720,438.153846 C738.725963,438.153846 753.846154,453.27404 753.846154,472 C753.846154,490.725963 738.725963,505.846154 720,505.846154 C701.27404,505.846154 686.153846,490.725963 686.153846,472 C686.153846,453.27404 701.27404,438.153846 720,438.153846 Z M739.326923,457.480769 L716.923077,479.884615 L703.75,466.711538 L699.326923,471.134615 L714.711538,486.519231 L716.923077,488.634615 L719.134615,486.519231 L743.75,461.903846 L739.326923,457.480769 Z" id="1_2_1_1/ic_success"></path>
        </g>
    </g>
</svg>